   Creating library D:\ptkatom\ENICAD\MODEL\SHK_PART\PROCESS\SHK\kts\work\kts_.lib and object D:\ptkatom\ENICAD\MODEL\SHK_PART\PROCESS\SHK\kts\work\kts_.exp
hydrocad_df.lib(UVKshort.obj) : error LNK2019: unresolved external symbol _DLSCXD@56 referenced in function _MAKE_ORDER
hydrocad_df.lib(Pump2.obj) : error LNK2019: unresolved external symbol _DCSDEC@36 referenced in function _PUMP2
hydrocad_df.lib(Pump2.obj) : error LNK2019: unresolved external symbol _DCSVAL@16 referenced in function _PUMP2
hydrocad_df.lib(Pump2.obj) : error LNK2019: unresolved external symbol _DCSDER@20 referenced in function _PUMP2
hydrocad_df.lib(partpre.obj) : error LNK2019: unresolved external symbol _DLSLRG@24 referenced in function _LINSOL
D:\ptkatom\ENICAD\MODEL\SHK_PART\PROCESS\SHK\kts\work\kts_.dll : fatal error LNK1120: 5 unresolved externals
