O|VAR|20FDC_K437_pos||..\1762_sgs.fgi|339|116|Gidra:regulgeoel|
O|VAR|20FDC_K438_pos||..\1762_sgs.fgi|339|87|Gidra:regulgeoel|
O|VAR|20FDC_K436_pos||..\1762_sgs.fgi|339|57|Gidra:regulgeoel|
O|VAR|20FDC_K435_pos||..\1762_sgs.fgi|421|116|Gidra:regulgeoel|
O|VAR|20FDC_K426_pos||..\1762_sgs.fgi|481|116|Gidra:regulgeoel|
O|VAR|MH52||..\1762_sgs.fgi|501|130|Gidra:transpnod|
O|VAR|20FDC_K431||..\1762_sgs.fgi|356|245|Gidra:regulgeoel|
O|VAR|20FDC_K432||..\1762_sgs.fgi|356|222|Gidra:regulgeoel|
O|VAR|20FDC_K433||..\1762_sgs.fgi|356|198|Gidra:regulgeoel|
O|VAR|20FDC_K429||..\1762_sgs.fgi|356|324|Gidra:regulgeoel|
O|VAR|20FDC_K430||..\1762_sgs.fgi|356|294|Gidra:regulgeoel|
O|VAR|20FDC_K434||..\1762_sgs.fgi|356|171|Gidra:regulgeoel|
O|VAR|20FDC_K428||..\1762_sgs.fgi|421|171|Gidra:regulgeoel|
O|VAR|20FDC_K427_pos||..\1762_sgs.fgi|481|171|Gidra:regulgeoel|
O|VAR|TVEL_H1||..\1762_sgs.fgi|548|116|Gidra:pump|
O|VAR|K185||..\1762_sgs.fgi|336|294|Gidra:valvegeo|
O|VAR|K336||..\1762_sgs.fgi|336|171|Gidra:valvegeo|
O|VAR|K209||..\1762_sgs.fgi|336|245|Gidra:valvegeo|
O|VAR|K211||..\1762_sgs.fgi|336|222|Gidra:valvegeo|
O|VAR|K225||..\1762_sgs.fgi|336|198|Gidra:valvegeo|
X|SOCK|FDC20_h.1762-06-f_vac||..\1762_sgs.fgi|387|92|Socket|
O|VAR|MH50||..\1762_sgs.fgi|422|79|Gidra:transdp|
X|SOCK|FDC20_h.1762-12-f_vac||..\1762_sgs.fgi|388|194|Socket|
O|VAR|MH51||..\1762_sgs.fgi|415|212|Gidra:transdp|
X|SOCK|FDC20_h.1762-12-f_vac||..\1762_sgs.fgi|327|152|Socket|
R|VAR|He||..\1762_sgs.fgi|130|115|SString|
R|VAR|N2||..\1762_sgs.fgi|128|56|SString|
O|VAR|MH71||..\1762_sgs.fgi|182|130|Gidra:transpnod|
O|VAR|20FDC_K523_pos||..\1762_sgs.fgi|222|116|Gidra:regulgeoel|
O|VAR|20FDC_K524_pos||..\1762_sgs.fgi|222|87|Gidra:regulgeoel|
O|VAR|MH72||..\1762_sgs.fgi|242|130|Gidra:transpnod|
O|VAR|MH73||..\1762_sgs.fgi|242|99|Gidra:transpnod|
O|VAR|TVEL_TG$26User||..\1762_sgs.fgi|280|116|Gidra:drosel|
O|VAR|TVEL_TG$27User||..\1762_sgs.fgi|280|87|Gidra:drosel|
O|VAR|20FDC_K525_pos||..\1762_sgs.fgi|222|57|Gidra:regulgeoel|
O|VAR|MH74||..\1762_sgs.fgi|242|71|Gidra:transpnod|
O|VAR|TVEL_TG$28User||..\1762_sgs.fgi|280|57|Gidra:drosel|
R|VAR|Air||..\1762_sgs.fgi|148|293|SString|
R|VAR|N2||..\1762_sgs.fgi|147|269|SString|
O|VAR|20FDC_K83_pos||..\1762_sgs.fgi|202|294|Gidra:regulgeoel|
O|VAR|20FDC_K84_pos||..\1762_sgs.fgi|202|270|Gidra:regulgeoel|
O|VAR|MH17||..\1762_sgs.fgi|225|308|Gidra:transpnod|
O|VAR|TVEL_TG$10User||..\1762_sgs.fgi|280|294|Gidra:drosel|
O|VAR|K184||..\1762_sgs.fgi|264|294|Gidra:valvegeo|
X|SOCK|FDC20_h.1762-06-f_vac||..\1762_sgs.fgi|327|275|Socket|
R|VAR|Air||..\1762_sgs.fgi|128|221|SString|
R|VAR|N2||..\1762_sgs.fgi|127|197|SString|
O|VAR|20FDC_K233||..\1762_sgs.fgi|182|222|Gidra:regulgeoel|
O|VAR|20FDC_K234||..\1762_sgs.fgi|182|198|Gidra:regulgeoel|
O|VAR|MH37||..\1762_sgs.fgi|205|236|Gidra:transpnod|
O|VAR|TVEL_TG$68User||..\1762_sgs.fgi|280|245|Gidra:drosel|
O|VAR|K208||..\1762_sgs.fgi|264|245|Gidra:valvegeo|
O|VAR|TVEL_TG$69User||..\1762_sgs.fgi|280|222|Gidra:drosel|
O|VAR|K210||..\1762_sgs.fgi|264|222|Gidra:valvegeo|
O|VAR|TVEL_TG$70User||..\1762_sgs.fgi|280|198|Gidra:drosel|
O|VAR|K224||..\1762_sgs.fgi|264|198|Gidra:valvegeo|
R|VAR|Air||..\1762_sgs.fgi|148|170|SString|
R|VAR|N2||..\1762_sgs.fgi|147|146|SString|
O|VAR|20FDC_K333||..\1762_sgs.fgi|202|171|Gidra:regulgeoel|
O|VAR|20FDC_K334||..\1762_sgs.fgi|202|147|Gidra:regulgeoel|
O|VAR|MH44||..\1762_sgs.fgi|225|185|Gidra:transpnod|
O|VAR|TVEL_TG$92User||..\1762_sgs.fgi|280|171|Gidra:drosel|
O|VAR|TVEL_TG$90User||..\1762_sgs.fgi|264|171|Gidra:valvegeo|
O|VAR|20FDC_K52||..\1762_sgs.fgi|202|324|Gidra:regulgeoel|
O|VAR|TVEL_TG$91User||..\1762_sgs.fgi|280|324|Gidra:drosel|
R|VAR|N2||..\1762_sgs.fgi|147|323|SString|
O|VAR|MH10||..\1762_sgs.fgi|298|338|Gidra:transpnod|
R|VAR|06||..\1762_sgs.fgi|129|89|SString|
R|VAR|12||..\1762_sgs.fgi|148|159|SString|
R|VAR|07||..\1762_sgs.fgi|127|209|SString|
R|VAR|06||..\1762_sgs.fgi|148|281|SString|
R|VAR|11||..\1762_sgs.fgi|148|314|SString|
