;
; Converted on RMO1 user User at 08.07.2020 07:20
; CRC of VPTs: old=E3F19279, new=32615B40
;
; Converted on RMO1 user User at 08.07.2020 10:38
; CRC of VPTs: old=32615B40, new=52ACB7F1
;
; Converted on ZHIM user zim at 09.07.2020 12:26
; CRC of VPTs: old=52ACB7F1, new=52ACB7F1
;
; Converted on ZHIM user zim at 09.07.2020 12:46
; CRC of VPTs: old=52ACB7F1, new=D531DC8B
FDA30_LOGICLCMPJ11126=7.9 ; 59.99
FDA30_LOGICLCMPJ11837=8 ; 60
FDA30_LOGICLCMPJ21221=7.9 ; 59.99
FDA30_LOGICLCMPJ21650=8 ; 60
FDA30_LOGICLCMPJ21803=8 ; 60
FDA30_LOGICTDELJ20673=120 ; 3600
;
; Converted on ZHIM user zim at 09.07.2020 12:50
; CRC of VPTs: old=D531DC8B, new=8D7FBCCA
;
; Converted on ZHIM user zim at 10.07.2020 16:04
; CRC of VPTs: old=8D7FBCCA, new=9199CCDA
20FDA90AE999__CJ3236=7668 ; 600
20FDA90AE999__CJ3237=20414 ; 1400
20FDA90AE999__LINTV_INT_PU=7668 ; 600
20FDA90AE999__UINTV_INT_PU=20414 ; 1400
;
; Converted on ZHIM user zim at 10.07.2020 16:16
; CRC of VPTs: old=9199CCDA, new=9199CCDA
;
; Converted on ZHIM user zim at 10.07.2020 16:22
; CRC of VPTs: old=9199CCDA, new=F0E811C0
;
; Converted on ZHIM user zim at 10.07.2020 17:07
; CRC of VPTs: old=F0E811C0, new=F0E811C0
;
; Converted on ZHIM user zim at 10.07.2020 17:37
; CRC of VPTs: old=F0E811C0, new=3EB7F4BC
;
; Converted on ZHIM user zim at 10.07.2020 22:05
; CRC of VPTs: old=3EB7F4BC, new=C05B25D3
;
; Converted on ZHIM user zim at 10.07.2020 23:29
; CRC of VPTs: old=C05B25D3, new=AD191B15
;
; Converted on ZHIM user zim at 13.07.2020 11:43
; CRC of VPTs: old=AD191B15, new=8AC1EB68
;
; Converted on ZHIM user zim at 13.07.2020 12:01
; CRC of VPTs: old=8AC1EB68, new=D65003C0
;
; Converted on ZHIM user zim at 13.07.2020 13:00
; CRC of VPTs: old=D65003C0, new=D65003C0
;
; Converted on ZHIM user zim at 14.07.2020 12:52
; CRC of VPTs: old=D65003C0, new=D65003C0
;
; Converted on ZHIM user zim at 14.07.2020 12:54
; CRC of VPTs: old=D65003C0, new=9414DC17
;
; Converted on ZHIM user zim at 14.07.2020 13:00
; CRC of VPTs: old=9414DC17, new=1DA63794
;
; Converted on ZHIM user zim at 14.07.2020 13:12
; CRC of VPTs: old=1DA63794, new=E6C8A0A
;
; Converted on ZHIM user zim at 14.07.2020 13:24
; CRC of VPTs: old=E6C8A0A, new=527D4D6C
;
; Converted on ZHIM user zim at 14.07.2020 14:02
; CRC of VPTs: old=527D4D6C, new=7EB783BD
;
; Converted on ZHIM user zim at 14.07.2020 14:41
; CRC of VPTs: old=7EB783BD, new=B1970EA5
;
; Converted on ZHIM user zim at 14.07.2020 16:49
; CRC of VPTs: old=B1970EA5, new=8F64F11D
;
; Converted on ZHIM user zim at 14.07.2020 16:53
; CRC of VPTs: old=8F64F11D, new=8F64F11D
;
; Converted on ZHIM user zim at 14.07.2020 17:11
; CRC of VPTs: old=8F64F11D, new=637C3896
;
; Converted on ZHIM user zim at 14.07.2020 17:16
; CRC of VPTs: old=637C3896, new=E46061E0
;
; Converted on ZHIM user zim at 14.07.2020 17:21
; CRC of VPTs: old=E46061E0, new=64CD87D
;
; Converted on ZHIM user zim at 14.07.2020 17:24
; CRC of VPTs: old=64CD87D, new=7F76F021
;
; Converted on ZHIM user zim at 14.07.2020 17:35
; CRC of VPTs: old=7F76F021, new=F4F104BE
;
; Converted on ZHIM user zim at 14.07.2020 17:50
; CRC of VPTs: old=F4F104BE, new=83E0DCF4
;
; Converted on ZHIM user zim at 14.07.2020 17:54
; CRC of VPTs: old=83E0DCF4, new=97C9AD5D
;
; Converted on ZHIM user zim at 14.07.2020 19:15
; CRC of VPTs: old=97C9AD5D, new=22DD51B9
;
; Converted on ZHIM user zim at 14.07.2020 19:21
; CRC of VPTs: old=22DD51B9, new=97BA1D33
FDA60_LOGICLCMPJ15892=1200 ; 14800
;
; Converted on ZHIM user zim at 14.07.2020 20:16
; CRC of VPTs: old=97BA1D33, new=9FA736A1
;
; Converted on ZHIM user zim at 14.07.2020 20:48
; CRC of VPTs: old=9FA736A1, new=F4B1E3C3
;
; Converted on ZHIM user zim at 14.07.2020 20:59
; CRC of VPTs: old=F4B1E3C3, new=F9CD0F2A
;
; Converted on ZHIM user zim at 14.07.2020 21:03
; CRC of VPTs: old=F9CD0F2A, new=D3E80481
;
; Converted on ZHIM user zim at 14.07.2020 21:43
; CRC of VPTs: old=D3E80481, new=C51C4D88
;
; Converted on ZHIM user zim at 14.07.2020 22:14
; CRC of VPTs: old=C51C4D88, new=A32E4E4A
;
; Converted on ZHIM user zim at 14.07.2020 22:25
; CRC of VPTs: old=A32E4E4A, new=A32E4E4A
;
; Converted on ZHIM user zim at 15.07.2020 14:02
; CRC of VPTs: old=A32E4E4A, new=BBDF4966
;
; Converted on ZHIM user zim at 15.07.2020 14:25
; CRC of VPTs: old=BBDF4966, new=6C69A2DD
;
; Converted on ZHIM user zim at 15.07.2020 16:04
; CRC of VPTs: old=6C69A2DD, new=6C69A2DD
;
; Converted on ZHIM user zim at 15.07.2020 17:22
; CRC of VPTs: old=6C69A2DD, new=E4714ECE
;
; Converted on ZHIM user zim at 15.07.2020 17:57
; CRC of VPTs: old=E4714ECE, new=E8551654
;
; Converted on ZHIM user zim at 16.07.2020 09:15
; CRC of VPTs: old=E8551654, new=6EFEC36D
;
; Converted on ZHIM user zim at 16.07.2020 18:08
; CRC of VPTs: old=6EFEC36D, new=9248F96D
;
; Converted on ZHIM user zim at 20.07.2020 16:51
; CRC of VPTs: old=9248F96D, new=125EE35D
20FDA20KANT01_C10_TCL_TOP=20 ; 5
20FDA20KANT01_C3_TCL_TOP=100 ; 20
20FDA20KANT01_C3__UINTT_INT=2000 ; 1
20FDA20KANT01_C4_TCL_TOP=100 ; 20
20FDA20KANT01_C4__UINTT_INT=2000 ; 1
20FDA20KANT01_C6_TCL_TOP=100 ; 20
20FDA20KANT01_C6__UINTT_INT=1000 ; 1
20FDA20KANT01_C7_TCL_TOP=100 ; 20
20FDA20KANT01_C7__UINTT_INT=1000 ; 1
20FDA20TRAN01_C3_TCL_TOP=100 ; 20
20FDA20TRAN01_C3__UINTT_INT=2000 ; 1
20FDA20TRAN01_C4_TCL_TOP=100 ; 20
20FDA20TRAN01_C4__UINTT_INT=2000 ; 1
20FDA20TRAN01_C5_TCL_TOP=100 ; 20
20FDA20TRAN01_C5__UINTT_INT=2000 ; 1
20FDA20TRAN01_C6_TCL_TOP=100 ; 20
20FDA20TRAN01_C6__UINTT_INT=1000 ; 1
20FDA20TRAN01_C7_TCL_TOP=100 ; 20
20FDA20TRAN01_C7__UINTT_INT=1000 ; 1
20FDA20TRAN02_C3_TCL_TOP=100 ; 20
20FDA20TRAN02_C3__LINTT_INT=2000 ; 0
20FDA20TRAN02_C3__UINTT_INT=4000 ; 1
20FDA20TRAN02_C4_TCL_TOP=100 ; 20
20FDA20TRAN02_C4__LINTT_INT=2000 ; 0
20FDA20TRAN02_C4__UINTT_INT=4000 ; 1
20FDA20TRAN02_C5_TCL_TOP=100 ; 20
20FDA20TRAN02_C5__LINTT_INT=2000 ; 0
20FDA20TRAN02_C5__UINTT_INT=4000 ; 1
20FDA20TRAN02_C6_TCL_TOP=100 ; 20
20FDA20TRAN02_C6__UINTT_INT=1000 ; 1
20FDA20TRAN02_C7_TCL_TOP=100 ; 20
20FDA20TRAN02_C7__UINTT_INT=1000 ; 1
20FDA20TRAN03_C3_TCL_TOP=100 ; 20
20FDA20TRAN03_C3__LINTT_INT=4000 ; 0
20FDA20TRAN03_C3__UINTT_INT=6000 ; 1
20FDA20TRAN03_C4_TCL_TOP=100 ; 20
20FDA20TRAN03_C4__LINTT_INT=4000 ; 0
20FDA20TRAN03_C4__UINTT_INT=6000 ; 1
20FDA20TRAN03_C5_TCL_TOP=100 ; 20
20FDA20TRAN03_C5__LINTT_INT=4000 ; 0
20FDA20TRAN03_C5__UINTT_INT=6000 ; 1
20FDA20TRAN03_C6_TCL_TOP=100 ; 20
20FDA20TRAN03_C6__UINTT_INT=1000 ; 1
20FDA20TRAN03_C7_TCL_TOP=100 ; 20
20FDA20TRAN03_C7__UINTT_INT=1000 ; 1
20FDA20TRAN04_C3_TCL_TOP=100 ; 20
20FDA20TRAN04_C3__LINTT_INT=6000 ; 0
20FDA20TRAN04_C3__UINTT_INT=8000 ; 1
20FDA20TRAN04_C4_TCL_TOP=100 ; 20
20FDA20TRAN04_C4__LINTT_INT=6000 ; 0
20FDA20TRAN04_C4__UINTT_INT=8000 ; 1
20FDA20TRAN04_C5_TCL_TOP=100 ; 20
20FDA20TRAN04_C5__LINTT_INT=6000 ; 0
20FDA20TRAN04_C5__UINTT_INT=8000 ; 1
20FDA20TRAN04_C6_TCL_TOP=100 ; 20
20FDA20TRAN04_C6__UINTT_INT=1000 ; 1
20FDA20TRAN04_C7_TCL_TOP=100 ; 20
20FDA20TRAN04_C7__UINTT_INT=1000 ; 1
20FDA20TRAN05_C3_TCL_TOP=100 ; 20
20FDA20TRAN05_C3__LINTT_INT=8000 ; 0
20FDA20TRAN05_C3__UINTT_INT=10000 ; 1
20FDA20TRAN05_C4_TCL_TOP=100 ; 20
20FDA20TRAN05_C4__LINTT_INT=8000 ; 0
20FDA20TRAN05_C4__UINTT_INT=10000 ; 1
20FDA20TRAN05_C5_TCL_TOP=100 ; 20
20FDA20TRAN05_C5__LINTT_INT=8000 ; 0
20FDA20TRAN05_C5__UINTT_INT=10000 ; 1
20FDA20TRAN05_C6_TCL_TOP=100 ; 20
20FDA20TRAN05_C6__UINTT_INT=1000 ; 1
20FDA20TRAN05_C7_TCL_TOP=100 ; 20
20FDA20TRAN05_C7__UINTT_INT=1000 ; 1
20FDA20TRAN05_C8_TCL_TOP=100 ; 20
20FDA20TRAN05_C8__UINTT_INT=1000 ; 1
20FDA20TRAN06_C3_TCL_TOP=100 ; 20
20FDA20TRAN06_C3__LINTT_INT=10000 ; 0
20FDA20TRAN06_C3__UINTT_INT=12000 ; 1
20FDA20TRAN06_C4_TCL_TOP=100 ; 20
20FDA20TRAN06_C4__LINTT_INT=10000 ; 0
20FDA20TRAN06_C4__UINTT_INT=12000 ; 1
20FDA20TRAN06_C5_TCL_TOP=100 ; 20
20FDA20TRAN06_C5__LINTT_INT=10000 ; 0
20FDA20TRAN06_C5__UINTT_INT=12000 ; 1
20FDA20TRAN06_C6_TCL_TOP=100 ; 20
20FDA20TRAN06_C6__UINTT_INT=1000 ; 1
20FDA20TRAN06_C7_TCL_TOP=100 ; 20
20FDA20TRAN06_C7__UINTT_INT=1000 ; 1
20FDA20TRAN06_C8_TCL_TOP=100 ; 20
20FDA20TRAN06_C8__UINTT_INT=1000 ; 1
20FDA20TRAN07_C3_TCL_TOP=100 ; 20
20FDA20TRAN07_C3__LINTT_INT=12000 ; 0
20FDA20TRAN07_C3__UINTT_INT=14000 ; 1
20FDA20TRAN07_C4_TCL_TOP=100 ; 20
20FDA20TRAN07_C4__LINTT_INT=12000 ; 0
20FDA20TRAN07_C4__UINTT_INT=14000 ; 1
20FDA20TRAN07_C5_TCL_TOP=100 ; 20
20FDA20TRAN07_C5__LINTT_INT=12000 ; 0
20FDA20TRAN07_C5__UINTT_INT=14000 ; 1
20FDA20TRAN07_C6_TCL_TOP=100 ; 20
20FDA20TRAN07_C6__UINTT_INT=1000 ; 1
20FDA20TRAN08_C3_TCL_TOP=100 ; 20
20FDA20TRAN08_C3__LINTT_INT=14000 ; 0
20FDA20TRAN08_C3__UINTT_INT=16000 ; 1
20FDA20TRAN08_C4_TCL_TOP=100 ; 20
20FDA20TRAN08_C4__LINTT_INT=14000 ; 0
20FDA20TRAN08_C4__UINTT_INT=16000 ; 1
20FDA20TRAN08_C5_TCL_TOP=100 ; 20
20FDA20TRAN08_C5__LINTT_INT=14000 ; 0
20FDA20TRAN08_C5__UINTT_INT=16000 ; 1
20FDA20TRAN08_C6_TCL_TOP=100 ; 20
20FDA20TRAN08_C6__UINTT_INT=1000 ; 1
20FDA20TRAN09_C3_TCL_TOP=100 ; 20
20FDA20TRAN09_C3__LINTT_INT=16000 ; 0
20FDA20TRAN09_C3__UINTT_INT=18000 ; 1
20FDA20TRAN09_C4_TCL_TOP=100 ; 20
20FDA20TRAN09_C4__LINTT_INT=16000 ; 0
20FDA20TRAN09_C4__UINTT_INT=18000 ; 1
20FDA20TRAN09_C5_TCL_TOP=100 ; 20
20FDA20TRAN09_C5__LINTT_INT=16000 ; 0
20FDA20TRAN09_C5__UINTT_INT=18000 ; 1
20FDA20TRAN09_C6_TCL_TOP=100 ; 20
20FDA20TRAN09_C6__UINTT_INT=1000 ; 1
20FDA20TRAN10_C3_TCL_TOP=100 ; 20
20FDA20TRAN10_C3__LINTT_INT=18000 ; 0
20FDA20TRAN10_C3__UINTT_INT=20100 ; 1
20FDA20TRAN10_C4_TCL_TOP=100 ; 20
20FDA20TRAN10_C4__LINTT_INT=18000 ; 0
20FDA20TRAN10_C4__UINTT_INT=20100 ; 1
20FDA20TRAN10_C5_TCL_TOP=100 ; 20
20FDA20TRAN10_C5__LINTT_INT=18000 ; 0
20FDA20TRAN10_C5__UINTT_INT=20100 ; 1
20FDA20TRAN10_C6_TCL_TOP=100 ; 20
20FDA20TRAN10_C6__UINTT_INT=1000 ; 1
20FDA21AB001VS_TCL_TOP=20 ; 10
20FDA21AB002_TCL_TOP=100 ; 10
20FDA21AE701_TCL_TOP=20 ; 10
20FDA21AE704M3_TCL_TOP=50 ; 20
20FDA21AE704M3__UINTT_INT=9000 ; 1
20FDA21AE704M4_TCL_TOP=50 ; 40
20FDA21AE704M4__UINTT_INT=9000 ; 1
20FDA21AE704M5_TCL_TOP=100 ; 20
20FDA21AE704M6_TCL_TOP=100 ; 20
20FDA21AE704M7__UINTT_INT=10000 ; 1
20FDA21AE704M8__UINTT_INT=10000 ; 1
20FDA60CONTS01VS1_TCL_TOP=20 ; 10
20FDA60CONTS01VS2_TCL_TOP=20 ; 10
20FDA60CONTS01VZ1_TCL_TOP=20 ; 10
20FDA60CONTS01VZ2_TCL_TOP=20 ; 10
20FDA60TELEZ_TCL_TOP=100 ; 60
20FDA60TELEZ__UINTT_INT=2000 ; 1
FDA20_SP2_UVRTIMPJ342=0.4 ; 1
FDA_DOZ_LOGICLCMPJ1004=-3 ; -10
FDA_DOZ_LOGICLCMPJ1005=3 ; 10
FDA_DOZ_LOGICLCMPJ1058=-3 ; -10
FDA_DOZ_LOGICLCMPJ1059=3 ; 10
FDA_DOZ_LOGICLCMPJ1090=-3 ; -10
FDA_DOZ_LOGICLCMPJ1091=3 ; 10
;
; Converted on ZHIM user zim at 20.07.2020 17:27
; CRC of VPTs: old=125EE35D, new=A91ABA42
;
; Converted on ZHIM user zim at 20.07.2020 17:45
; CRC of VPTs: old=A91ABA42, new=CB6AC882
;
; Converted on ZHIM user zim at 20.07.2020 17:56
; CRC of VPTs: old=CB6AC882, new=D4564013
;
; Converted on ZHIM user zim at 20.07.2020 18:00
; CRC of VPTs: old=D4564013, new=D4564013
FDA60_LOGICLCMPJ15892=14800 ; 1250
;
; Converted on ZHIM user zim at 20.07.2020 18:04
; CRC of VPTs: old=D4564013, new=9972E784
;
; Converted on ZHIM user zim at 20.07.2020 18:08
; CRC of VPTs: old=9972E784, new=2B379904
;
; Converted on ZHIM user zim at 20.07.2020 18:26
; CRC of VPTs: old=2B379904, new=ECD90084
;
; Converted on ZHIM user zim at 21.07.2020 11:07
; CRC of VPTs: old=ECD90084, new=57A89599
;
; Converted on ZHIM user zim at 21.07.2020 11:56
; CRC of VPTs: old=57A89599, new=CB6E0635
;
; Converted on ZHIM user zim at 21.07.2020 12:43
; CRC of VPTs: old=CB6E0635, new=CD640986
;
; Converted on ZHIM user zim at 21.07.2020 12:56
; CRC of VPTs: old=CD640986, new=A6BDB4B9
;
; Converted on ZHIM user zim at 21.07.2020 14:00
; CRC of VPTs: old=A6BDB4B9, new=E9D7B868
;
; Converted on ZHIM user zim at 21.07.2020 15:02
; CRC of VPTs: old=E9D7B868, new=F515998E
;
; Converted on ZHIM user zim at 21.07.2020 15:14
; CRC of VPTs: old=F515998E, new=1EF00171
;
; Converted on ZHIM user zim at 21.07.2020 15:30
; CRC of VPTs: old=1EF00171, new=C575AB9
;
; Converted on ZHIM user zim at 21.07.2020 15:32
; CRC of VPTs: old=C575AB9, new=760BE05A
;
; Converted on ZHIM user zim at 21.07.2020 17:42
; CRC of VPTs: old=760BE05A, new=714E1CF2
;
; Converted on ZHIM user zim at 21.07.2020 17:50
; CRC of VPTs: old=714E1CF2, new=D0B56190
;
; Converted on ZHIM user zim at 21.07.2020 18:04
; CRC of VPTs: old=D0B56190, new=1CB18F63
;
; Converted on ZHIM user zim at 21.07.2020 18:10
; CRC of VPTs: old=1CB18F63, new=3B1F1313
;
; Converted on ZHIM user zim at 21.07.2020 18:25
; CRC of VPTs: old=3B1F1313, new=D2C459F9
;
; Converted on ZHIM user zim at 21.07.2020 18:32
; CRC of VPTs: old=D2C459F9, new=7BD0E9CF
;
; Converted on ZHIM user zim at 21.07.2020 18:42
; CRC of VPTs: old=7BD0E9CF, new=32D9F0DE
;
; Converted on ZHIM user zim at 21.07.2020 20:13
; CRC of VPTs: old=32D9F0DE, new=79DAAA16
;
; Converted on ZHIM user zim at 22.07.2020 13:09
; CRC of VPTs: old=79DAAA16, new=D5C45C87
;
; Converted on RMO8 user User at 22.07.2020 15:10
; CRC of VPTs: old=D5C45C87, new=D5C45C87
